Division,WeightClassKg,Place,Name,Team,BodyweightKg,Best3SquatKg,Best3BenchKg,Best3DeadliftKg,TotalKg,Equipment,Event,Sex
Boys,51.71,1,Aiden Guynes,Frisco Wakeland,47.54,77.11,43.09,102.06,222.26,Single-ply,SBD,M
Boys,51.71,DQ,Jared Banda,Frisco Reedy,49.4,95.25,,,,Single-ply,SBD,M
Boys,55.79,1,Ricky Lopez,Frisco Centennial,51.89,158.76,95.25,192.78,446.79,Single-ply,SBD,M
Boys,55.79,2,Jameson Donahue,Frisco Reedy,55.16,127.01,65.77,117.93,310.71,Single-ply,SBD,M
Boys,55.79,3,Bradley Ricks,Frisco Liberty,55.79,90.72,61.23,120.2,272.16,Single-ply,SBD,M
Boys,55.79,4,Dominic Puch,Frisco Centennial,53.52,97.52,56.7,108.86,263.08,Single-ply,SBD,M
Boys,55.79,5,John Hammer,Frisco Centennial,54.88,92.99,43.09,102.06,238.14,Single-ply,SBD,M
Boys,55.79,DQ,Marshall Good,Anna,55.47,158.76,83.91,,,Single-ply,SBD,M
Boys,59.87,1,Alaska Venable,Anna,59.74,179.17,124.74,185.97,489.88,Single-ply,SBD,M
Boys,59.87,2,Gavin Carroll,Frisco Wakeland,59.56,158.76,79.38,158.76,396.89,Single-ply,SBD,M
Boys,59.87,3,Henry Mortenson,Frisco Liberty,59.42,154.22,79.38,145.15,378.75,Single-ply,SBD,M
Boys,59.87,4,Matt Read,Frisco Heritage,59.42,124.74,74.84,147.42,347,Single-ply,SBD,M
Boys,59.87,5,Jacob Reddin,Anna,58.97,115.67,81.65,133.81,331.12,Single-ply,SBD,M
Boys,59.87,DQ,Will Best,Frisco Wakeland,57.74,122.47,,,,Single-ply,SBD,M
Boys,67.13,1,Josué Hernández,Anna,65.82,167.83,95.25,147.42,410.5,Single-ply,SBD,M
Boys,67.13,2,Will Gerrish,Frisco,66.68,131.54,102.06,156.49,390.09,Single-ply,SBD,M
Boys,67.13,3,Josh Foster,Frisco Lone Star,67.04,158.76,72.57,158.76,390.09,Single-ply,SBD,M
Boys,67.13,4,Travis Torres,Frisco,66.68,142.88,102.06,136.08,381.02,Single-ply,SBD,M
Boys,67.13,5,Dylan Cadwallader,Frisco Wakeland,66.45,136.08,77.11,156.49,369.68,Single-ply,SBD,M
Boys,67.13,6,Corey Norman,Frisco Heritage,66.04,138.35,70.31,149.69,358.34,Single-ply,SBD,M
Boys,67.13,7,Zach Travors,Frisco Wakeland,66.36,124.74,70.31,147.42,342.46,Single-ply,SBD,M
Boys,67.13,8,Gireesh Daggupati,Frisco Heritage,66.54,90.72,45.36,111.13,247.21,Single-ply,SBD,M
Boys,67.13,DQ,Eric Parker,Frisco Heritage,66.09,102.06,,,,Single-ply,SBD,M
Boys,,NS,Edward Zeng,Frisco Liberty,,,,,,Single-ply,SBD,M
Boys,74.84,1,Antonio Barragan,Anna,72.71,226.8,140.61,206.38,573.79,Single-ply,SBD,M
Boys,74.84,2,Justin Gipson,Frisco Reedy,74.8,222.26,133.81,190.51,546.58,Single-ply,SBD,M
Boys,74.84,3,Elijah Harrison,Princeton,72.3,172.37,97.52,183.7,453.59,Single-ply,SBD,M
Boys,74.84,4,Xavier Thomas,Princeton,74.25,172.37,97.52,165.56,435.45,Single-ply,SBD,M
Boys,74.84,5,Robert Striegel,Frisco Wakeland,73.66,163.29,95.25,170.1,428.64,Single-ply,SBD,M
Boys,74.84,6,Conner Wolfe,Frisco Heritage,71.67,142.88,86.18,170.1,399.16,Single-ply,SBD,M
Boys,74.84,7,Djrake Hernandez,Princeton,68.63,129.27,108.86,154.22,392.36,Single-ply,SBD,M
Boys,74.84,8,Jason Morgan,Frisco Independence,74.53,142.88,106.59,124.74,374.21,Single-ply,SBD,M
Boys,74.84,9,Vincente Rivera,McKinney North,71.44,124.74,90.72,145.15,360.61,Single-ply,SBD,M
Boys,74.84,10,Ethan Tackitt,Frisco Heritage,73.75,104.33,72.57,167.83,344.73,Single-ply,SBD,M
Boys,74.84,11,Jordan Etienne,Frisco Lone Star,67.9,99.79,70.31,147.42,317.51,Single-ply,SBD,M
Boys,82.1,1,George Kennard,Frisco Wakeland,75.89,226.8,142.88,238.14,607.81,Single-ply,SBD,M
Boys,82.1,2,Isaac Williams,Frisco Centennial,80.01,226.8,108.86,210.92,546.58,Single-ply,SBD,M
Boys,82.1,3,Trevor Heavner,Frisco Reedy,76.75,204.12,111.13,197.31,512.56,Single-ply,SBD,M
Boys,82.1,4,Josh Whytus,McKinney,76.84,195.04,102.06,213.19,510.29,Single-ply,SBD,M
Boys,82.1,5,Brendan Foster,Frisco,79.83,181.44,122.47,195.04,498.95,Single-ply,SBD,M
Boys,82.1,6,Amyri Cox,Anna,76.11,179.17,106.59,206.38,492.15,Single-ply,SBD,M
Boys,82.1,7,Bryson Jenkins,Frisco Centennial,78.93,183.7,108.86,190.51,483.08,Single-ply,SBD,M
Boys,82.1,8,Larmie Bolden,Princeton,78.43,174.63,120.2,183.7,478.54,Single-ply,SBD,M
Boys,82.1,9,Issac Graham,Princeton,81.96,170.1,104.33,185.97,460.4,Single-ply,SBD,M
Boys,82.1,10,Ethan Lopez,Princeton,81.87,140.61,106.59,170.1,417.3,Single-ply,SBD,M
Boys,82.1,11,William Penny #1,Frisco Liberty,78.06,165.56,90.72,156.49,412.77,Single-ply,SBD,M
Boys,82.1,12,Jarred Brown,Frisco Heritage,79.97,151.95,88.45,154.22,394.63,Single-ply,SBD,M
Boys,82.1,13,Tommy Warkins,Frisco Heritage,77.02,120.2,79.38,163.29,362.87,Single-ply,SBD,M
Boys,82.1,14,Woodson Andrews,McKinney Boyd,77.61,138.35,88.45,136.08,362.87,Single-ply,SBD,M
Boys,82.1,DQ,Jalen Ford,Frisco Lone Star,80.47,138.35,,,,Single-ply,SBD,M
Boys,82.1,DQ,Ethan Harrison,Frisco Lone Star,78.97,124.74,83.91,,,Single-ply,SBD,M
Boys,82.1,DQ,Conner Young #2,Frisco Lone Star,76.02,147.42,,,,Single-ply,SBD,M
Boys,89.81,1,Kardale Smith,Anna,84.96,226.8,127.01,219.99,573.79,Single-ply,SBD,M
Boys,89.81,2,Austin Dickson,Anna,89.81,217.72,136.08,192.78,546.58,Single-ply,SBD,M
Boys,89.81,3,Dexter Green,Frisco Liberty,85.87,199.58,131.54,204.12,535.24,Single-ply,SBD,M
Boys,89.81,4,Jeff Hemmenway,Frisco Reedy,87.09,208.65,131.54,190.51,530.7,Single-ply,SBD,M
Boys,89.81,5,Jacob Veres,Frisco Wakeland,88.59,204.12,127.01,190.51,521.63,Single-ply,SBD,M
Boys,89.81,6,Eric Hawkins,Frisco Lone Star,89.36,174.63,117.93,183.7,476.27,Single-ply,SBD,M
Boys,89.81,7,Rasheed Readas,Anna,83.05,170.1,97.52,201.85,469.47,Single-ply,SBD,M
Boys,89.81,8,Filo Kolta,Frisco,87.68,185.97,106.59,176.9,469.47,Single-ply,SBD,M
Boys,89.81,9,Jaden Ramey,McKinney Boyd,88.36,172.37,115.67,181.44,469.47,Single-ply,SBD,M
Boys,89.81,10,Christopher Tracy,Anna,87.5,181.44,122.47,158.76,462.66,Single-ply,SBD,M
Boys,89.81,11,Jeremy Rios,McKinney,86.59,181.44,97.52,181.44,460.4,Single-ply,SBD,M
Boys,89.81,12,Kamari Wilkerson,Frisco,89.68,165.56,90.72,190.51,446.79,Single-ply,SBD,M
Boys,89.81,13,Trevor Jones,Frisco Reedy,86.45,167.83,92.99,174.63,435.45,Single-ply,SBD,M
Boys,89.81,14,Garrett Brooks,Frisco,89.58,156.49,113.4,158.76,428.64,Single-ply,SBD,M
Boys,89.81,15,Zackery McMahon,McKinney North,87.14,149.69,79.38,190.51,419.57,Single-ply,SBD,M
Boys,89.81,16,Nick Pogacnik,McKinney Boyd,85.73,145.15,88.45,170.1,403.7,Single-ply,SBD,M
Boys,89.81,17,Andrew Mills,McKinney,89.54,181.44,113.4,88.45,383.29,Single-ply,SBD,M
Boys,89.81,18,Jaxon Holloman,Frisco Heritage,82.55,142.88,97.52,142.88,383.29,Single-ply,SBD,M
Boys,89.81,19,Cody Selby,Frisco,88.27,129.27,68.04,156.49,353.8,Single-ply,SBD,M
Boys,,NS,Nick Longoria,McKinney Boyd,,,,,,Single-ply,SBD,M
Boys,99.79,1,Zach Barenburg,McKinney Boyd,98.25,204.12,131.54,222.26,557.92,Single-ply,SBD,M
Boys,99.79,2,Ferguson Ohabor,Frisco Centennial,95.89,206.38,104.33,219.99,530.7,Single-ply,SBD,M
Boys,99.79,3,Jeffery Whitehead,McKinney North,89.9,190.51,113.4,208.65,512.56,Single-ply,SBD,M
Boys,99.79,4,Matthew Kizlyk,McKinney,93.44,181.44,108.86,204.12,494.42,Single-ply,SBD,M
Boys,99.79,5,Jacob Thompson,Frisco,98.07,192.78,115.67,183.7,492.15,Single-ply,SBD,M
Boys,99.79,6,Brandon McClarnon,Frisco Centennial,96.52,195.04,108.86,181.44,485.34,Single-ply,SBD,M
Boys,99.79,7,Brandon Cambre,Frisco Independence,92.85,190.51,111.13,181.44,483.08,Single-ply,SBD,M
Boys,99.79,8,Isiah Montoya,Princeton,98.34,174.63,136.08,170.1,480.81,Single-ply,SBD,M
Boys,99.79,9,Furman Roberts,McKinney North,90.99,170.1,108.86,167.83,446.79,Single-ply,SBD,M
Boys,99.79,10,Jorge Celis,Frisco Centennial,96.21,165.56,90.72,156.49,412.77,Single-ply,SBD,M
Boys,99.79,11,Chris Busch,McKinney Boyd,98.29,136.08,90.72,149.69,376.48,Single-ply,SBD,M
Boys,99.79,12,Jaren Vernon,Frisco,91.9,129.27,97.52,147.42,374.21,Single-ply,SBD,M
Boys,99.79,DQ,Cody Gonzales,Frisco Heritage,98.66,,,,,Single-ply,SBD,M
Boys,99.79,DQ,Isaiah Foster,Frisco Lone Star,94.12,,,,,Single-ply,SBD,M
Boys,99.79,DQ,Damien Stuver,Frisco Liberty,93.58,,,,,Single-ply,SBD,M
Boys,,NS,Brent Matiscik,McKinney Boyd,,,,,,Single-ply,SBD,M
Boys,,NS,Jackson Cantrell,McKinney,,,,,,Single-ply,SBD,M
Boys,109.77,1,Khalil Lewis,McKinney North,107.09,226.8,124.74,215.46,566.99,Single-ply,SBD,M
Boys,109.77,2,Jeremy LaFoucade,McKinney,106.64,181.44,111.13,206.38,498.95,Single-ply,SBD,M
Boys,109.77,3,Josh Garza,Princeton,104.28,183.7,102.06,192.78,478.54,Single-ply,SBD,M
Boys,109.77,4,Kyle Ford,Frisco Liberty,106.64,190.51,111.13,174.63,476.27,Single-ply,SBD,M
Boys,109.77,5,David Hall,Frisco,106,161.03,92.99,158.76,412.77,Single-ply,SBD,M
Boys,109.77,DQ,Christian Cappiello,Frisco,100.92,167.83,,,,Single-ply,SBD,M
Boys,109.77,DQ,Owen Tackitt,Frisco Heritage,107.64,83.91,70.31,,,Single-ply,SBD,M
Boys,109.77,DQ,Josh Burtch,Frisco Liberty,103.1,140.61,,,,Single-ply,SBD,M
Boys,109.77,DQ,Tanner Jones #5,Frisco Lone Star,105.91,149.69,,,,Single-ply,SBD,M
Boys,,NS,Nick Vasser,McKinney,,,,,,Single-ply,SBD,M
Boys,,NS,James Craft,McKinney North,,,,,,Single-ply,SBD,M
Boys,124.74,1,Collin Moore,Frisco Centennial,112.76,226.8,138.35,188.24,553.38,Single-ply,SBD,M
Boys,124.74,2,Cody Ragsdale,Frisco Centennial,116.89,192.78,113.4,204.12,510.29,Single-ply,SBD,M
Boys,124.74,3,DeAndre Nobles,Princeton,112.35,183.7,122.47,195.04,501.22,Single-ply,SBD,M
Boys,124.74,4,Dreylan Washington,Frisco,112.49,172.37,115.67,197.31,485.34,Single-ply,SBD,M
Boys,124.74,5,Ben Perry,Frisco Independence,118.84,183.7,115.67,183.7,483.08,Single-ply,SBD,M
Boys,124.74,6,Jp Kruse,Frisco Reedy,119.43,190.51,95.25,158.76,444.52,Single-ply,SBD,M
Boys,124.74,DQ,Tommy Pfingst,McKinney,124.28,208.65,106.59,,,Single-ply,SBD,M
Boys,124.74,DQ,Wesley Thrasher,Frisco Centennial,118.02,,,,,Single-ply,SBD,M
Boys,124.74,DQ,Dylan Harris,Frisco Lone Star,115.03,206.38,,,,Single-ply,SBD,M
Boys,124.74,DQ,Logan Stockham,Frisco Liberty,111.31,142.88,,,,Single-ply,SBD,M
Boys,,NS,Cesar Sandoval,Frisco Reedy,,,,,,Single-ply,SBD,M
Boys,,NS,Marcus Ramsey,McKinney,,,,,,Single-ply,SBD,M
Boys,124.74+,1,Zach Saldana,Frisco Independence,125.83,249.48,158.76,219.99,628.23,Single-ply,SBD,M
Boys,124.74+,2,Tucker Rowland,Frisco Heritage,131.9,215.46,183.7,226.8,625.96,Single-ply,SBD,M
Boys,124.74+,3,Izeya Floyd,Frisco Reedy,126.64,238.14,138.35,219.99,596.47,Single-ply,SBD,M
Boys,124.74+,4,Rafiti Ghirmai,Frisco Wakeland,133.36,208.65,129.27,208.65,546.58,Single-ply,SBD,M
Boys,124.74+,5,Deondray Fortman,McKinney,173.59,226.8,113.4,190.51,530.7,Single-ply,SBD,M
Boys,124.74+,6,Kris Estep,McKinney,141.79,170.1,99.79,240.4,510.29,Single-ply,SBD,M
Boys,124.74+,7,Kaleb Arnold,Frisco Heritage,136.62,185.97,117.93,179.17,483.08,Single-ply,SBD,M
Boys,124.74+,DQ,Reese Cory,Frisco Lone Star,125.46,183.7,,,,Single-ply,SBD,M
Boys,,NS,Cooper Gschwend,Frisco Independence,,,,,,Single-ply,SBD,M
Boys,,NS,Peyton Donofrio,McKinney North,,,,,,Single-ply,SBD,M
